ApplicationMgr    SUCCESS
ApplicationMgr       INFO Application Manager Configured successfully
GiGa.ModularPL             INFO Registered GiGa.ModularPL.GiGaFastPhysConstructor
DetectorsHits              INFO Member list: GetTrackerHitsAlg/GetPuVetoHits, GetTrackerHitsAlg/GetVeloHits, GetTrackerHitsAlg/GetTTHits, GetTrackerHitsAlg/GetITHits, GetTrackerHitsAlg/GetOTHits, GaudiSequencer/RichHits, GetCaloHitsAlg/GetSpdHits, GetFastCaloHitsAlg/GetFastSpdHits, GetCaloHitsAlg/GetPrsHits, GetFastCaloHitsAlg/GetFastPrsHits, GetCaloHitsAlg/GetEcalHits, GetFastCaloHitsAlg/GetFastEcalHits, GetCaloHitsAlg/GetHcalHits, GetFastCaloHitsAlg/GetFastHcalHits, GetTrackerHitsAlg/GetMuonHits
ApplicationMgr             INFO Application Manager Initialized successfully
ApplicationMgr             INFO Application Manager Started successfully
GiGa.GiGaMgr.GiGaFast...   INFO *********** Initialising GiGaFastRegionTool ************
GiGa.GiGaMgr.GiGaFast...WARNING GiGaFastRegionTool::  G4LogicalVolume '/dd/Geometry/DownstreamRegion/Spd/Installation/Spd' already belongs to region 'DefaultRegionForTheWorld', overwrite  StatusCode=FAILURE
GiGa.GiGaMgr.GiGaFast...WARNING GiGaFastRegionTool::  G4LogicalVolume '/dd/Geometry/DownstreamRegion/Prs/Installation/Prs' already belongs to region 'DefaultRegionForTheWorld', overwrite  StatusCode=FAILURE
GiGa.GiGaMgr.GiGaFast...WARNING GiGaFastRegionTool::  G4LogicalVolume '/dd/Geometry/DownstreamRegion/Ecal/Installation/Ecal' already belongs to region 'DefaultRegionForTheWorld', overwrite  StatusCode=FAILURE
GiGa.GiGaMgr.GiGaFast...WARNING GiGaFastRegionTool::  G4LogicalVolume '/dd/Geometry/DownstreamRegion/Hcal/Installation/lvHcal' already belongs to region 'DefaultRegionForTheWorld', overwrite  StatusCode=FAILURE
FastsimPointlibModel: Number of bins in library for E, theta, phi: 80 14 1
GiGa.GiGaMgr.GiGaFast...   INFO *********** End Initialising GiGaFastRegionTool ************
ApplicationMgr             INFO Application Manager Stopped successfully
=                                                                 =
= Number of particles generated: 5113
= Number of events: 5
= Mean multiplicity: 1022.6
=                                                                 =
= Number of pseudo stable particles generated: 2444
= Number of events: 5
= Mean pseudo stable multiplicity: 488.8
=                                                                 =
= Number of charged stable particles generated: 746
= Number of events: 5
= Mean charged stable multiplicity: 149.2
=                                                                 =
= Number of charged stable particles in LHCb eta 142
= Number of events: 5
= Mean charged stable multiplicity in LHCb eta: 28.4
=                                                                 =
GiGa.GiGaMgr.GiGaFast...SUCCESS Exceptions/Errors/Warnings/Infos Statistics : 0/0/4/0
GiGa.GiGaMgr.GiGaFast...SUCCESS  #WARNINGS   = 1        Message = ' G4LogicalVolume '/dd/Geometry/DownstreamRegion/Ecal/Installation/Ecal' already belongs to region 'DefaultRegionForTheWorld', overwrite '
GiGa.GiGaMgr.GiGaFast...SUCCESS  #WARNINGS   = 1        Message = ' G4LogicalVolume '/dd/Geometry/DownstreamRegion/Hcal/Installation/lvHcal' already belongs to region 'DefaultRegionForTheWorld', overwrite '
GiGa.GiGaMgr.GiGaFast...SUCCESS  #WARNINGS   = 1        Message = ' G4LogicalVolume '/dd/Geometry/DownstreamRegion/Prs/Installation/Prs' already belongs to region 'DefaultRegionForTheWorld', overwrite '
GiGa.GiGaMgr.GiGaFast...SUCCESS  #WARNINGS   = 1        Message = ' G4LogicalVolume '/dd/Geometry/DownstreamRegion/Spd/Installation/Spd' already belongs to region 'DefaultRegionForTheWorld', overwrite '
******Stat******           INFO  The Final stat Table (ordered)
******Stat******           INFO  |    Counter     |     #     |    sum     | mean/eff^* | rms/err^*  |     min     |     max     |
******Stat******           INFO  | "#MCRichTracks"|         5 |        582 |     116.40 |     74.255 |      14.000 |      202.00 |
******Stat******           INFO  | "#MCRichSegment|         5 |        672 |     134.40 |     87.113 |      15.000 |      235.00 |
******Stat******           INFO  | "#IT MCHits"   |         5 |       1318 |     263.60 |     182.34 |      20.000 |      569.00 |
******Stat******           INFO  | "#Hcal MCHits" |         5 |       1623 |     324.60 |     250.11 |      82.000 |      657.00 |
******Stat******           INFO  | "#Muon MCHits" |         5 |       1705 |     341.00 |     220.50 |      48.000 |      610.00 |
******Stat******           INFO  | "#TT MCHits"   |         5 |       1910 |     382.00 |     224.40 |      39.000 |      656.00 |
******Stat******           INFO  | "#OT MCHits"   |         5 |       3872 |     774.40 |     533.00 |      81.000 |      1419.0 |
******Stat******           INFO  | "#Rich1 MCHits"|         5 |       4059 |     811.80 |     606.40 |      22.000 |      1602.0 |
******Stat******           INFO  | "#Velo MCHits" |         5 |       4396 |     879.20 |     647.46 |      112.00 |      1633.0 |
******Stat******           INFO  | "#Rich2 MCHits"|         5 |       7421 |     1484.2 |     902.99 |      218.00 |      2688.0 |
******Stat******           INFO  | "#MCParticles" |         5 |       8706 |     1741.2 |     1131.0 |      282.00 |      3134.0 |
******Stat******           INFO  | "#Spd MCHits"  |         5 |       9184 |     1836.8 |     1150.6 |      304.00 |      3263.0 |
******Stat******           INFO  | "#MCVertices"  |         5 |       9607 |     1921.4 |     1245.5 |      289.00 |      3461.0 |
******Stat******           INFO  | "#MCRichOpPhoto|         5 |      11477 |     2295.4 |     1463.5 |      240.00 |      4022.0 |
******Stat******           INFO  | "#Rich MCHits" |         5 |      11480 |     2296.0 |     1464.2 |      240.00 |      4025.0 |
******Stat******           INFO  | "#Prs MCHits"  |         5 |      23497 |     4699.4 |     3258.0 |      837.00 |      8629.0 |
******Stat******           INFO  | "#Ecal MCHits" |         5 |      25571 |     5114.2 |     3753.0 |      985.00 |      10373. |
ApplicationMgr             INFO Application Manager Finalized successfully
ApplicationMgr             INFO Application Manager Terminated successfully
CheckEcalHits              INFO Number of counters : 6
 |    Counter                                      |     #     |    sum     | mean/eff^* | rms/err^*  |     min     |     max     |
 | "Diff.    - Energy"                             |     25571 |-0.002580521 |-1.0092e-07 | 2.8831e-05 | -4.9996e-05 |  4.9994e-05 |
 | "Diff.    - TOF"                                |     25571 |          0 |      0.0000 |      0.0000 |       0.0000 |       0.0000 |
 | "Original - Energy"                             |     25571 |   189967.8 |     7.4290 |     34.655 |  1.0785e-06 |      2124.7 |
 | "Original - TOF"                                |     25571 |       4747 |    0.18564 |    0.41668 |       0.0000 |      9.0000 |
 | "Unpacked - Energy"                             |     25571 |   189967.8 |     7.4290 |     34.655 |       0.0000 |      2124.7 |
 | "Unpacked - TOF"                                |     25571 |       4747 |    0.18564 |    0.41668 |       0.0000 |      9.0000 |
CheckHcalHits              INFO Number of counters : 6
 |    Counter                                      |     #     |    sum     | mean/eff^* | rms/err^*  |     min     |     max     |
 | "Diff.    - Energy"                             |      1623 |-0.001179583 |-7.2679e-07 | 2.8990e-05 | -5.0000e-05 |  4.9998e-05 |
 | "Diff.    - TOF"                                |      1623 |          0 |      0.0000 |      0.0000 |       0.0000 |       0.0000 |
 | "Original - Energy"                             |      1623 |   13173.73 |     8.1169 |     20.546 |  0.00013617 |      448.69 |
 | "Original - TOF"                                |      1623 |        328 |    0.20209 |    0.45345 |     -1.0000 |      3.0000 |
 | "Unpacked - Energy"                             |      1623 |   13173.74 |     8.1169 |     20.546 |  0.00010000 |      448.69 |
 | "Unpacked - TOF"                                |      1623 |        328 |    0.20209 |    0.45345 |     -1.0000 |      3.0000 |
CheckITHits                INFO Number of counters : 27
 |    Counter                                      |     #     |    sum     | mean/eff^* | rms/err^*  |     min     |     max     |
 | "Diff.    - Displacement x"                     |      1318 |-1.944604e-05 |-1.4754e-08 | 2.8465e-07 | -4.9965e-07 |  4.9783e-07 |
 | "Diff.    - Displacement y"                     |      1318 |-8.27648e-06 |-6.2796e-09 | 2.8061e-07 | -4.9971e-07 |  4.9990e-07 |
 | "Diff.    - Displacement z"                     |      1318 |2.956332e-05 | 2.2430e-08 | 2.7999e-07 | -4.9990e-07 |  4.9976e-07 |
 | "Diff.    - Energy"                             |      1318 |-4.214164e-06 |-3.1974e-09 | 5.8185e-07 | -9.9840e-07 |  9.9894e-07 |
 | "Diff.    - Entry Point x"                      |      1318 |0.0002833463 | 2.1498e-07 | 2.8331e-05 | -4.9995e-05 |  4.9933e-05 |
 | "Diff.    - Entry Point y"                      |      1318 |-0.0004065141 |-3.0843e-07 | 2.8618e-05 | -4.9914e-05 |  4.9961e-05 |
 | "Diff.    - Entry Point z"                      |      1318 |1.906415e-06 | 1.4464e-09 | 2.8504e-05 | -4.9968e-05 |  4.9999e-05 |
 | "Diff.    - Parent |P|"                         |      1318 |-0.03798831 |-2.8823e-05 |  0.0028965 |  -0.0049995 |   0.0049623 |
 | "Diff.    - TOF"                                |      1318 |-7.692429e-05 |-5.8364e-08 | 2.8755e-06 | -4.9828e-06 |  4.9996e-06 |
 | "Original - Displacement x"                     |      1318 |  -30.48457 |  -0.023129 |    0.21852 |     -2.3045 |      1.3456 |
 | "Original - Displacement y"                     |      1318 |   1.342287 |  0.0010184 |   0.086276 |    -0.95426 |     0.98735 |
 | "Original - Displacement z"                     |      1318 |   448.8638 |    0.34056 |    0.16211 |    -0.41221 |     0.41213 |
 | "Original - Energy"                             |      1318 |   214.4852 |    0.16274 |    0.16703 |  0.00018668 |      3.1734 |
 | "Original - Entry Point x"                      |      1318 |  -96153.59 |    -72.954 |     274.20 |     -640.85 |      634.53 |
 | "Original - Entry Point y"                      |      1318 |   -24235.7 |    -18.388 |     91.828 |     -218.11 |      217.69 |
 | "Original - Entry Point z"                      |      1318 |1.105126e+07 |     8384.9 |     559.08 |      7667.7 |      9171.9 |
 | "Original - Parent |P|"                         |      1318 |1.584913e+07 |     12025.0 |     20804.0 |      1.4257 |  1.6904e+05 |
 | "Original - TOF"                                |      1318 |   37319.82 |     28.315 |     2.1975 |      25.552 |      43.059 |
 | "Unpacked - Displacement x"                     |      1318 |  -30.48455 |  -0.023129 |    0.21852 |     -2.3045 |      1.3456 |
 | "Unpacked - Displacement y"                     |      1318 |   1.342295 |  0.0010184 |   0.086276 |    -0.95426 |     0.98735 |
 | "Unpacked - Displacement z"                     |      1318 |   448.8637 |    0.34056 |    0.16211 |    -0.41221 |     0.41213 |
 | "Unpacked - Energy"                             |      1318 |   214.4852 |    0.16274 |    0.16703 |  0.00018600 |      3.1734 |
 | "Unpacked - Entry Point x"                      |      1318 |  -96153.59 |    -72.954 |     274.20 |     -640.85 |      634.53 |
 | "Unpacked - Entry Point y"                      |      1318 |   -24235.7 |    -18.388 |     91.828 |     -218.11 |      217.69 |
 | "Unpacked - Entry Point z"                      |      1318 |1.105126e+07 |     8384.9 |     559.08 |      7667.7 |      9171.9 |
 | "Unpacked - Parent |P|"                         |      1318 |1.584913e+07 |     12025.0 |     20804.0 |      1.4300 |  1.6904e+05 |
 | "Unpacked - TOF"                                |      1318 |   37319.82 |     28.315 |     2.1975 |      25.552 |      43.059 |
CheckMuonHits              INFO Number of counters : 27
 |    Counter                                      |     #     |    sum     | mean/eff^* | rms/err^*  |     min     |     max     |
 | "Diff.    - Displacement x"                     |      1705 |1.364188e-05 | 8.0011e-09 | 2.9474e-07 | -4.9984e-07 |  4.9871e-07 |
 | "Diff.    - Displacement y"                     |      1705 |5.391746e-07 | 3.1623e-10 | 2.8927e-07 | -4.9978e-07 |  4.9933e-07 |
 | "Diff.    - Displacement z"                     |      1705 |-8.696258e-06 |-5.1004e-09 | 2.8623e-07 | -4.9915e-07 |  4.9949e-07 |
 | "Diff.    - Energy"                             |      1705 |-2.262887e-05 |-1.3272e-08 | 5.7722e-07 | -9.9998e-07 |  9.9986e-07 |
 | "Diff.    - Entry Point x"                      |      1705 |-0.0004674671 |-2.7417e-07 | 2.8631e-05 | -4.9979e-05 |  4.9958e-05 |
 | "Diff.    - Entry Point y"                      |      1705 |0.001062654 | 6.2326e-07 | 2.8993e-05 | -4.9940e-05 |  4.9995e-05 |
 | "Diff.    - Entry Point z"                      |      1705 |-0.000919899 |-5.3953e-07 | 2.9101e-05 | -4.9878e-05 |  4.9939e-05 |
 | "Diff.    - Parent |P|"                         |      1705 |    0.16479 | 9.6651e-05 |  0.0028588 |  -0.0049989 |   0.0049972 |
 | "Diff.    - TOF"                                |      1705 |-1.792114e-05 |-1.0511e-08 | 2.8479e-06 | -4.9967e-06 |  4.9993e-06 |
 | "Original - Displacement x"                     |      1705 |   137.1968 |   0.080467 |     4.6792 |     -40.256 |      91.141 |
 | "Original - Displacement y"                     |      1705 |   193.4618 |    0.11347 |     4.2508 |     -75.105 |      44.766 |
 | "Original - Displacement z"                     |      1705 |   6715.385 |     3.9386 |     2.1864 |     -5.2705 |      5.0916 |
 | "Original - Energy"                             |      1705 |   3.159225 |  0.0018529 |  0.0036666 |  8.2147e-06 |    0.065047 |
 | "Original - Entry Point x"                      |      1705 |  -457295.9 |    -268.21 |     1465.1 |     -4839.7 |      4696.4 |
 | "Original - Entry Point y"                      |      1705 |   99137.79 |     58.145 |     865.65 |     -3991.5 |      3960.3 |
 | "Original - Entry Point z"                      |      1705 |2.129241e+07 |     12488.0 |     1117.7 |      11953.0 |      18823.0 |
 | "Original - Parent |P|"                         |      1705 |    4000379 |     2346.3 |     7153.5 |      1.4304 |  1.0328e+05 |
 | "Original - TOF"                                |      1705 |   73709.59 |     43.231 |     7.1347 |      39.853 |      167.58 |
 | "Unpacked - Displacement x"                     |      1705 |   137.1968 |   0.080467 |     4.6792 |     -40.256 |      91.141 |
 | "Unpacked - Displacement y"                     |      1705 |   193.4618 |    0.11347 |     4.2508 |     -75.105 |      44.766 |
 | "Unpacked - Displacement z"                     |      1705 |   6715.385 |     3.9386 |     2.1864 |     -5.2705 |      5.0916 |
 | "Unpacked - Energy"                             |      1705 |   3.159248 |  0.0018529 |  0.0036666 |  8.0000e-06 |    0.065046 |
 | "Unpacked - Entry Point x"                      |      1705 |  -457295.9 |    -268.21 |     1465.1 |     -4839.7 |      4696.4 |
 | "Unpacked - Entry Point y"                      |      1705 |   99137.79 |     58.145 |     865.65 |     -3991.5 |      3960.3 |
 | "Unpacked - Entry Point z"                      |      1705 |2.129241e+07 |     12488.0 |     1117.7 |      11953.0 |      18823.0 |
 | "Unpacked - Parent |P|"                         |      1705 |    4000379 |     2346.3 |     7153.5 |      1.4300 |  1.0328e+05 |
 | "Unpacked - TOF"                                |      1705 |   73709.59 |     43.231 |     7.1347 |      39.853 |      167.58 |
CheckOTHits                INFO Number of counters : 27
 |    Counter                                      |     #     |    sum     | mean/eff^* | rms/err^*  |     min     |     max     |
 | "Diff.    - Displacement x"                     |      3872 |4.871476e-05 | 1.2581e-08 | 2.8823e-07 | -4.9996e-07 |  4.9997e-07 |
 | "Diff.    - Displacement y"                     |      3872 |6.602695e-06 | 1.7052e-09 | 2.9149e-07 | -4.9950e-07 |  4.9984e-07 |
 | "Diff.    - Displacement z"                     |      3872 |2.975284e-05 | 7.6841e-09 | 2.9142e-07 | -4.9997e-07 |  4.9976e-07 |
 | "Diff.    - Energy"                             |      3872 |1.645314e-05 | 4.2493e-09 | 5.8356e-07 | -9.9980e-07 |  9.9973e-07 |
 | "Diff.    - Entry Point x"                      |      3872 |-0.001410496 |-3.6428e-07 | 2.8537e-05 | -4.9900e-05 |  4.9988e-05 |
 | "Diff.    - Entry Point y"                      |      3872 |1.508781e-05 | 3.8966e-09 | 2.8825e-05 | -4.9904e-05 |  4.9989e-05 |
 | "Diff.    - Entry Point z"                      |      3872 |0.0005693112 | 1.4703e-07 | 2.8610e-05 | -4.9987e-05 |  4.9995e-05 |
 | "Diff.    - Parent |P|"                         |      3872 |-0.01020369 |-2.6353e-06 |  0.0029015 |  -0.0049998 |   0.0049955 |
 | "Diff.    - TOF"                                |      3872 |-0.0002041949 |-5.2736e-08 | 2.8561e-06 | -4.9988e-06 |  4.9985e-06 |
 | "Original - Displacement x"                     |      3872 |  -1314.933 |   -0.33960 |     10.926 |     -135.75 |      144.41 |
 | "Original - Displacement y"                     |      3872 |   -1105.14 |   -0.28542 |     8.8084 |     -316.47 |      101.52 |
 | "Original - Displacement z"                     |      3872 |   25690.92 |     6.6351 |     7.3239 |     -11.046 |      11.096 |
 | "Original - Energy"                             |      3872 |   1158.393 |    0.29917 |    0.45690 |  3.2421e-05 |      11.581 |
 | "Original - Entry Point x"                      |      3872 |  -566208.1 |    -146.23 |     1374.9 |     -3015.0 |      3024.9 |
 | "Original - Entry Point y"                      |      3872 |   77608.61 |     20.044 |     673.77 |     -2420.5 |      2417.9 |
 | "Original - Entry Point z"                      |      3872 |3.342767e+07 |     8633.2 |     556.46 |      7847.7 |      9414.9 |
 | "Original - Parent |P|"                         |      3872 | 1.2001e+07 |     3099.4 |     6691.5 |      1.4238 |  1.0330e+05 |
 | "Original - TOF"                                |      3872 |     128307 |     33.137 |     10.346 |      26.201 |      162.29 |
 | "Unpacked - Displacement x"                     |      3872 |  -1314.933 |   -0.33960 |     10.926 |     -135.75 |      144.41 |
 | "Unpacked - Displacement y"                     |      3872 |   -1105.14 |   -0.28542 |     8.8084 |     -316.47 |      101.52 |
 | "Unpacked - Displacement z"                     |      3872 |   25690.92 |     6.6351 |     7.3239 |     -11.046 |      11.096 |
 | "Unpacked - Energy"                             |      3872 |   1158.393 |    0.29917 |    0.45690 |  3.2000e-05 |      11.581 |
 | "Unpacked - Entry Point x"                      |      3872 |  -566208.1 |    -146.23 |     1374.9 |     -3015.0 |      3024.9 |
 | "Unpacked - Entry Point y"                      |      3872 |   77608.61 |     20.044 |     673.77 |     -2420.5 |      2417.9 |
 | "Unpacked - Entry Point z"                      |      3872 |3.342767e+07 |     8633.2 |     556.46 |      7847.7 |      9414.9 |
 | "Unpacked - Parent |P|"                         |      3872 | 1.2001e+07 |     3099.4 |     6691.5 |      1.4200 |  1.0330e+05 |
 | "Unpacked - TOF"                                |      3872 |     128307 |     33.137 |     10.346 |      26.201 |      162.29 |
CheckPrsHits               INFO Number of counters : 6
 |    Counter                                      |     #     |    sum     | mean/eff^* | rms/err^*  |     min     |     max     |
 | "Diff.    - Energy"                             |     23497 |0.004296444 | 1.8285e-07 | 2.8946e-05 | -5.0000e-05 |  4.9990e-05 |
 | "Diff.    - TOF"                                |     23497 |          0 |      0.0000 |      0.0000 |       0.0000 |       0.0000 |
 | "Original - Energy"                             |     23497 |   22806.46 |    0.97061 |     3.4289 |  6.1803e-07 |      97.440 |
 | "Original - TOF"                                |     23497 |      36813 |     1.5667 |     1.6877 |     -1.0000 |      11.000 |
 | "Unpacked - Energy"                             |     23497 |   22806.46 |    0.97061 |     3.4289 |       0.0000 |      97.440 |
 | "Unpacked - TOF"                                |     23497 |      36813 |     1.5667 |     1.6877 |     -1.0000 |      11.000 |
CheckPuVetoHits            INFO Number of counters : 27
 |    Counter                                      |     #     |    sum     | mean/eff^* | rms/err^*  |     min     |     max     |
 | "Diff.    - Displacement x"                     |       258 |5.075754e-06 | 1.9673e-08 | 2.8739e-07 | -4.9353e-07 |  4.9447e-07 |
 | "Diff.    - Displacement y"                     |       258 |5.120548e-06 | 1.9847e-08 | 2.7989e-07 | -4.9839e-07 |  4.9993e-07 |
 | "Diff.    - Displacement z"                     |       258 |-8.897529e-07 |-3.4487e-09 | 2.9668e-07 | -4.9266e-07 |  4.9855e-07 |
 | "Diff.    - Energy"                             |       258 |-1.124128e-05 |-4.3571e-08 | 5.7390e-07 | -9.7995e-07 |  9.9851e-07 |
 | "Diff.    - Entry Point x"                      |       258 |-0.000814423 |-3.1567e-06 | 2.8499e-05 | -4.9879e-05 |  4.9939e-05 |
 | "Diff.    - Entry Point y"                      |       258 |-0.0002127408 |-8.2458e-07 | 2.9042e-05 | -4.9489e-05 |  4.9960e-05 |
 | "Diff.    - Entry Point z"                      |       258 |-0.0002604411 |-1.0095e-06 | 2.7533e-05 | -4.9392e-05 |  4.9977e-05 |
 | "Diff.    - Parent |P|"                         |       258 |-0.006669429 |-2.5851e-05 |  0.0027687 |  -0.0049571 |   0.0049517 |
 | "Diff.    - TOF"                                |       258 |5.84911e-05 | 2.2671e-07 | 2.8150e-06 | -4.9206e-06 |  4.9967e-06 |
 | "Original - Displacement x"                     |       258 | -0.1014119 |-0.00039307 |   0.032357 |    -0.29822 |     0.14712 |
 | "Original - Displacement y"                     |       258 |  0.5584371 |  0.0021645 |   0.041405 |    -0.24114 |     0.33080 |
 | "Original - Displacement z"                     |       258 |  -75.80123 |   -0.29380 |   0.048472 |    -0.30086 |     0.30050 |
 | "Original - Energy"                             |       258 |   30.52939 |    0.11833 |    0.12323 |   0.0026850 |      1.2308 |
 | "Original - Entry Point x"                      |       258 |   377.7071 |     1.4640 |     16.433 |     -40.927 |      39.085 |
 | "Original - Entry Point y"                      |       258 |   255.2649 |    0.98940 |     17.084 |     -43.449 |      42.453 |
 | "Original - Entry Point z"                      |       258 |  -69198.82 |    -268.21 |     41.736 |     -315.91 |     -218.96 |
 | "Original - Parent |P|"                         |       258 |    2177961 |     8441.7 |     10659.0 |      1.5994 |      87861.0 |
 | "Original - TOF"                                |       258 |   217.8237 |    0.84428 |    0.17292 |     0.59040 |      2.0507 |
 | "Unpacked - Displacement x"                     |       258 |  -0.101417 |-0.00039309 |   0.032357 |    -0.29822 |     0.14712 |
 | "Unpacked - Displacement y"                     |       258 |   0.558432 |  0.0021645 |   0.041405 |    -0.24114 |     0.33080 |
 | "Unpacked - Displacement z"                     |       258 |  -75.80123 |   -0.29380 |   0.048472 |    -0.30086 |     0.30050 |
 | "Unpacked - Energy"                             |       258 |   30.52941 |    0.11833 |    0.12323 |   0.0026840 |      1.2308 |
 | "Unpacked - Entry Point x"                      |       258 |   377.7079 |     1.4640 |     16.433 |     -40.928 |      39.085 |
 | "Unpacked - Entry Point y"                      |       258 |   255.2651 |    0.98940 |     17.084 |     -43.449 |      42.453 |
 | "Unpacked - Entry Point z"                      |       258 |  -69198.82 |    -268.21 |     41.736 |     -315.91 |     -218.96 |
 | "Unpacked - Parent |P|"                         |       258 |    2177961 |     8441.7 |     10659.0 |      1.6000 |      87861.0 |
 | "Unpacked - TOF"                                |       258 |   217.8237 |    0.84428 |    0.17292 |     0.59040 |      2.0507 |
CheckRichHits              INFO Number of counters : 15
 |    Counter                                      |     #     |    sum     | mean/eff^* | rms/err^*  |     min     |     max     |
 | "Diff.    - Energy"                             |     11480 |0.002895419 | 2.5221e-07 | 2.8271e-05 | -0.00086877 |   0.0026996 |
 | "Diff.    - Entry Point x"                      |     11480 |0.001663252 | 1.4488e-07 | 2.8829e-05 | -4.9998e-05 |  4.9994e-05 |
 | "Diff.    - Entry Point y"                      |     11480 |0.004057136 | 3.5341e-07 | 2.8859e-05 | -4.9992e-05 |  4.9999e-05 |
 | "Diff.    - Entry Point z"                      |     11480 |0.001083431 | 9.4375e-08 | 2.8785e-05 | -4.9987e-05 |  4.9992e-05 |
 | "Diff.    - TOF"                                |     11480 |-0.001139147 |-9.9229e-08 | 2.8945e-06 | -4.9978e-06 |  4.9976e-06 |
 | "Original - Energy"                             |     11480 |   1758.543 |    0.15318 |     10.512 |    0.020000 |      1000.1 |
 | "Original - Entry Point x"                      |     11480 |   -7452132 |    -649.14 |     3147.5 |     -4150.4 |      4151.1 |
 | "Original - Entry Point y"                      |     11480 |    1937879 |     168.80 |     753.02 |     -1389.1 |      1391.7 |
 | "Original - Entry Point z"                      |     11480 |8.685245e+07 |     7565.5 |     4408.8 |      1330.7 |      11095.0 |
 | "Original - TOF"                                |     11480 |   433135.2 |     37.730 |     21.417 |      6.8641 |      145.67 |
 | "Unpacked - Energy"                             |     11480 |    1758.54 |    0.15318 |     10.512 |    0.020000 |      1000.1 |
 | "Unpacked - Entry Point x"                      |     11480 |   -7452132 |    -649.14 |     3147.5 |     -4150.4 |      4151.1 |
 | "Unpacked - Entry Point y"                      |     11480 |    1937879 |     168.80 |     753.02 |     -1389.1 |      1391.7 |
 | "Unpacked - Entry Point z"                      |     11480 |8.685245e+07 |     7565.5 |     4408.8 |      1330.7 |      11095.0 |
 | "Unpacked - TOF"                                |     11480 |   433135.2 |     37.730 |     21.417 |      6.8641 |      145.67 |
CheckRichOpPhot            INFO Number of counters : 72
 |    Counter                                      |     #     |    sum     | mean/eff^* | rms/err^*  |     min     |     max     |
 | "Diff.    - Aero. Exit x"                       |     11477 |          0 |      0.0000 |      0.0000 |       0.0000 |       0.0000 |
 | "Diff.    - Aero. Exit y"                       |     11477 |          0 |      0.0000 |      0.0000 |       0.0000 |       0.0000 |
 | "Diff.    - Aero. Exit z"                       |     11477 |          0 |      0.0000 |      0.0000 |       0.0000 |       0.0000 |
 | "Diff.    - Cherenkov Phi"                      |     11477 |          0 |      0.0000 |      0.0000 |       0.0000 |       0.0000 |
 | "Diff.    - Cherenkov Theta"                    |     11477 |          0 |      0.0000 |      0.0000 |       0.0000 |       0.0000 |
 | "Diff.    - Emission Point x"                   |     11477 |0.004046669 | 3.5259e-07 | 2.8877e-05 | -4.9992e-05 |  4.9986e-05 |
 | "Diff.    - Emission Point y"                   |     11477 |-0.0006106496 |-5.3206e-08 | 2.8882e-05 | -4.9993e-05 |  4.9996e-05 |
 | "Diff.    - Emission Point z"                   |     11477 |-0.0006181877 |-5.3863e-08 | 2.8788e-05 | -4.9991e-05 |  4.9996e-05 |
 | "Diff.    - Energy"                             |     11477 |7.471499e-10 | 6.5100e-14 | 5.7819e-12 | -1.0004e-11 |  1.0004e-11 |
 | "Diff.    - HPD In. Point x"                    |     11477 |0.002365357 | 2.0610e-07 | 2.8756e-05 | -4.9995e-05 |  4.9994e-05 |
 | "Diff.    - HPD In. Point y"                    |     11477 |-0.0001062995 |-9.2620e-09 | 2.8985e-05 | -4.9991e-05 |  4.9993e-05 |
 | "Diff.    - HPD In. Point z"                    |     11477 |-0.003576681 |-3.1164e-07 | 2.8936e-05 | -4.9998e-05 |  4.9994e-05 |
 | "Diff.    - HPD QW Point x"                     |     11477 |          0 |      0.0000 |      0.0000 |       0.0000 |       0.0000 |
 | "Diff.    - HPD QW Point y"                     |     11477 |          0 |      0.0000 |      0.0000 |       0.0000 |       0.0000 |
 | "Diff.    - HPD QW Point z"                     |     11477 |          0 |      0.0000 |      0.0000 |       0.0000 |       0.0000 |
 | "Diff.    - Parent Momentum x"                  |     11477 |          0 |      0.0000 |      0.0000 |       0.0000 |       0.0000 |
 | "Diff.    - Parent Momentum y"                  |     11477 |          0 |      0.0000 |      0.0000 |       0.0000 |       0.0000 |
 | "Diff.    - Parent Momentum z"                  |     11477 |          0 |      0.0000 |      0.0000 |       0.0000 |       0.0000 |
 | "Diff.    - Prim. Mirr. x"                      |     11477 |          0 |      0.0000 |      0.0000 |       0.0000 |       0.0000 |
 | "Diff.    - Prim. Mirr. y"                      |     11477 |          0 |      0.0000 |      0.0000 |       0.0000 |       0.0000 |
 | "Diff.    - Prim. Mirr. z"                      |     11477 |          0 |      0.0000 |      0.0000 |       0.0000 |       0.0000 |
 | "Diff.    - Sec. Mirr. x"                       |     11477 |          0 |      0.0000 |      0.0000 |       0.0000 |       0.0000 |
 | "Diff.    - Sec. Mirr. y"                       |     11477 |          0 |      0.0000 |      0.0000 |       0.0000 |       0.0000 |
 | "Diff.    - Sec. Mirr. z"                       |     11477 |          0 |      0.0000 |      0.0000 |       0.0000 |       0.0000 |
 | "Original - Aero. Exit x"                       |     11477 |          0 |      0.0000 |      0.0000 |       0.0000 |       0.0000 |
 | "Original - Aero. Exit y"                       |     11477 |          0 |      0.0000 |      0.0000 |       0.0000 |       0.0000 |
 | "Original - Aero. Exit z"                       |     11477 |          0 |      0.0000 |      0.0000 |       0.0000 |       0.0000 |
 | "Original - Cherenkov Phi"                      |     11477 |   36075.73 |     3.1433 |     1.8111 |  9.3949e-05 |      6.2831 |
 | "Original - Cherenkov Theta"                    |     11477 |   5150.682 |    0.44878 |    0.58286 |   0.0010082 |      2.9392 |
 | "Original - Emission Point x"                   |     11477 |   -5380161 |    -468.78 |     1929.8 |     -4075.0 |      4075.6 |
 | "Original - Emission Point y"                   |     11477 |   911259.8 |     79.399 |     387.90 |     -1435.8 |      1414.7 |
 | "Original - Emission Point z"                   |     11477 |8.409217e+07 |     7327.0 |     4346.5 |      990.52 |      11823.0 |
 | "Original - Energy"                             |     11477 | 0.04930461 | 4.2959e-06 | 1.0613e-06 |  1.7534e-06 |  6.8718e-06 |
 | "Original - HPD In. Point x"                    |     11477 |   -7286262 |    -634.86 |     3076.1 |     -4079.1 |      4076.3 |
 | "Original - HPD In. Point y"                    |     11477 |    1826688 |     159.16 |     701.00 |     -1306.9 |      1298.9 |
 | "Original - HPD In. Point z"                    |     11477 |8.622777e+07 |     7513.1 |     4406.6 |      1267.0 |      11073.0 |
 | "Original - HPD QW Point x"                     |     11477 |          0 |      0.0000 |      0.0000 |       0.0000 |       0.0000 |
 | "Original - HPD QW Point y"                     |     11477 |          0 |      0.0000 |      0.0000 |       0.0000 |       0.0000 |
 | "Original - HPD QW Point z"                     |     11477 |          0 |      0.0000 |      0.0000 |       0.0000 |       0.0000 |
 | "Original - Parent Momentum x"                  |     11477 |          0 |      0.0000 |      0.0000 |       0.0000 |       0.0000 |
 | "Original - Parent Momentum y"                  |     11477 |          0 |      0.0000 |      0.0000 |       0.0000 |       0.0000 |
 | "Original - Parent Momentum z"                  |     11477 |          0 |      0.0000 |      0.0000 |       0.0000 |       0.0000 |
 | "Original - Prim. Mirr. x"                      |     11477 |          0 |      0.0000 |      0.0000 |       0.0000 |       0.0000 |
 | "Original - Prim. Mirr. y"                      |     11477 |          0 |      0.0000 |      0.0000 |       0.0000 |       0.0000 |
 | "Original - Prim. Mirr. z"                      |     11477 |          0 |      0.0000 |      0.0000 |       0.0000 |       0.0000 |
 | "Original - Sec. Mirr. x"                       |     11477 |          0 |      0.0000 |      0.0000 |       0.0000 |       0.0000 |
 | "Original - Sec. Mirr. y"                       |     11477 |          0 |      0.0000 |      0.0000 |       0.0000 |       0.0000 |
 | "Original - Sec. Mirr. z"                       |     11477 |          0 |      0.0000 |      0.0000 |       0.0000 |       0.0000 |
 | "Unpacked - Aero. Exit x"                       |     11477 |          0 |      0.0000 |      0.0000 |       0.0000 |       0.0000 |
 | "Unpacked - Aero. Exit y"                       |     11477 |          0 |      0.0000 |      0.0000 |       0.0000 |       0.0000 |
 | "Unpacked - Aero. Exit z"                       |     11477 |          0 |      0.0000 |      0.0000 |       0.0000 |       0.0000 |
 | "Unpacked - Cherenkov Phi"                      |     11477 |   36075.73 |     3.1433 |     1.8111 |  9.3949e-05 |      6.2831 |
 | "Unpacked - Cherenkov Theta"                    |     11477 |   5150.682 |    0.44878 |    0.58286 |   0.0010082 |      2.9392 |
 | "Unpacked - Emission Point x"                   |     11477 |   -5380161 |    -468.78 |     1929.8 |     -4075.0 |      4075.6 |
 | "Unpacked - Emission Point y"                   |     11477 |   911259.8 |     79.399 |     387.90 |     -1435.8 |      1414.7 |
 | "Unpacked - Emission Point z"                   |     11477 |8.409217e+07 |     7327.0 |     4346.5 |      990.52 |      11823.0 |
 | "Unpacked - Energy"                             |     11477 | 0.04930461 | 4.2959e-06 | 1.0613e-06 |  1.7534e-06 |  6.8718e-06 |
 | "Unpacked - HPD In. Point x"                    |     11477 |   -7286262 |    -634.86 |     3076.1 |     -4079.1 |      4076.3 |
 | "Unpacked - HPD In. Point y"                    |     11477 |    1826688 |     159.16 |     701.00 |     -1306.9 |      1298.9 |
 | "Unpacked - HPD In. Point z"                    |     11477 |8.622777e+07 |     7513.1 |     4406.6 |      1267.0 |      11073.0 |
 | "Unpacked - HPD QW Point x"                     |     11477 |          0 |      0.0000 |      0.0000 |       0.0000 |       0.0000 |
 | "Unpacked - HPD QW Point y"                     |     11477 |          0 |      0.0000 |      0.0000 |       0.0000 |       0.0000 |
 | "Unpacked - HPD QW Point z"                     |     11477 |          0 |      0.0000 |      0.0000 |       0.0000 |       0.0000 |
 | "Unpacked - Parent Momentum x"                  |     11477 |          0 |      0.0000 |      0.0000 |       0.0000 |       0.0000 |
 | "Unpacked - Parent Momentum y"                  |     11477 |          0 |      0.0000 |      0.0000 |       0.0000 |       0.0000 |
 | "Unpacked - Parent Momentum z"                  |     11477 |          0 |      0.0000 |      0.0000 |       0.0000 |       0.0000 |
 | "Unpacked - Prim. Mirr. x"                      |     11477 |          0 |      0.0000 |      0.0000 |       0.0000 |       0.0000 |
 | "Unpacked - Prim. Mirr. y"                      |     11477 |          0 |      0.0000 |      0.0000 |       0.0000 |       0.0000 |
 | "Unpacked - Prim. Mirr. z"                      |     11477 |          0 |      0.0000 |      0.0000 |       0.0000 |       0.0000 |
 | "Unpacked - Sec. Mirr. x"                       |     11477 |          0 |      0.0000 |      0.0000 |       0.0000 |       0.0000 |
 | "Unpacked - Sec. Mirr. y"                       |     11477 |          0 |      0.0000 |      0.0000 |       0.0000 |       0.0000 |
 | "Unpacked - Sec. Mirr. z"                       |     11477 |          0 |      0.0000 |      0.0000 |       0.0000 |       0.0000 |
CheckRichSegments          INFO Number of counters : 18
 |    Counter                                      |     #     |    sum     | mean/eff^* | rms/err^*  |     min     |     max     |
 | "Diff.    - Traj. Momenta x"                    |       672 |          0 |      0.0000 |      0.0000 |       0.0000 |       0.0000 |
 | "Diff.    - Traj. Momenta y"                    |       672 |          0 |      0.0000 |      0.0000 |       0.0000 |       0.0000 |
 | "Diff.    - Traj. Momenta z"                    |       672 |          0 |      0.0000 |      0.0000 |       0.0000 |       0.0000 |
 | "Diff.    - Traj. Point x"                      |       672 |          0 |      0.0000 |      0.0000 |       0.0000 |       0.0000 |
 | "Diff.    - Traj. Point y"                      |       672 |          0 |      0.0000 |      0.0000 |       0.0000 |       0.0000 |
 | "Diff.    - Traj. Point z"                      |       672 |          0 |      0.0000 |      0.0000 |       0.0000 |       0.0000 |
 | "Original - Traj. Momenta x"                    |       672 |          0 |      0.0000 |      0.0000 |       0.0000 |       0.0000 |
 | "Original - Traj. Momenta y"                    |       672 |          0 |      0.0000 |      0.0000 |       0.0000 |       0.0000 |
 | "Original - Traj. Momenta z"                    |       672 |          0 |      0.0000 |      0.0000 |       0.0000 |       0.0000 |
 | "Original - Traj. Point x"                      |       672 |          0 |      0.0000 |      0.0000 |       0.0000 |       0.0000 |
 | "Original - Traj. Point y"                      |       672 |          0 |      0.0000 |      0.0000 |       0.0000 |       0.0000 |
 | "Original - Traj. Point z"                      |       672 |          0 |      0.0000 |      0.0000 |       0.0000 |       0.0000 |
 | "Unpacked - Traj. Momenta x"                    |       672 |          0 |      0.0000 |      0.0000 |       0.0000 |       0.0000 |
 | "Unpacked - Traj. Momenta y"                    |       672 |          0 |      0.0000 |      0.0000 |       0.0000 |       0.0000 |
 | "Unpacked - Traj. Momenta z"                    |       672 |          0 |      0.0000 |      0.0000 |       0.0000 |       0.0000 |
 | "Unpacked - Traj. Point x"                      |       672 |          0 |      0.0000 |      0.0000 |       0.0000 |       0.0000 |
 | "Unpacked - Traj. Point y"                      |       672 |          0 |      0.0000 |      0.0000 |       0.0000 |       0.0000 |
 | "Unpacked - Traj. Point z"                      |       672 |          0 |      0.0000 |      0.0000 |       0.0000 |       0.0000 |
CheckSpdHits               INFO Number of counters : 6
 |    Counter                                      |     #     |    sum     | mean/eff^* | rms/err^*  |     min     |     max     |
 | "Diff.    - Energy"                             |      9184 |-0.0007987061 |-8.6967e-08 | 2.8752e-05 | -5.0000e-05 |  4.9996e-05 |
 | "Diff.    - TOF"                                |      9184 |          0 |      0.0000 |      0.0000 |       0.0000 |       0.0000 |
 | "Original - Energy"                             |      9184 |   4668.672 |    0.50835 |     1.4671 |  3.5938e-06 |      39.736 |
 | "Original - TOF"                                |      9184 |      14290 |     1.5560 |     1.6995 |     -1.0000 |      9.0000 |
 | "Unpacked - Energy"                             |      9184 |   4668.673 |    0.50835 |     1.4671 |       0.0000 |      39.736 |
 | "Unpacked - TOF"                                |      9184 |      14290 |     1.5560 |     1.6995 |     -1.0000 |      9.0000 |
CheckTTHits                INFO Number of counters : 27
 |    Counter                                      |     #     |    sum     | mean/eff^* | rms/err^*  |     min     |     max     |
 | "Diff.    - Displacement x"                     |      1910 |-1.167217e-05 |-6.1111e-09 | 2.9165e-07 | -4.9992e-07 |  4.9866e-07 |
 | "Diff.    - Displacement y"                     |      1910 |1.069401e-05 | 5.5990e-09 | 2.9261e-07 | -4.9991e-07 |  4.9926e-07 |
 | "Diff.    - Displacement z"                     |      1910 |-2.651857e-06 |-1.3884e-09 | 1.1995e-07 | -4.9870e-07 |  4.9706e-07 |
 | "Diff.    - Energy"                             |      1910 |1.338084e-05 | 7.0057e-09 | 5.7345e-07 | -9.9961e-07 |  9.9840e-07 |
 | "Diff.    - Entry Point x"                      |      1910 |0.0009417972 | 4.9309e-07 | 2.8663e-05 | -4.9988e-05 |  4.9988e-05 |
 | "Diff.    - Entry Point y"                      |      1910 |0.0008054719 | 4.2171e-07 | 2.9212e-05 | -4.9926e-05 |  4.9960e-05 |
 | "Diff.    - Entry Point z"                      |      1910 |-7.893345e-05 |-4.1326e-08 | 9.2433e-06 | -4.9430e-05 |  4.9912e-05 |
 | "Diff.    - Parent |P|"                         |      1910 | -0.1112518 |-5.8247e-05 |  0.0028310 |  -0.0049993 |   0.0049999 |
 | "Diff.    - TOF"                                |      1910 |-9.187097e-05 |-4.8100e-08 | 2.9089e-06 | -4.9964e-06 |  4.9957e-06 |
 | "Original - Displacement x"                     |      1910 |  -61.87013 |  -0.032393 |    0.53005 |     -5.8579 |      10.003 |
 | "Original - Displacement y"                     |      1910 |  -8.833883 | -0.0046251 |    0.28655 |     -4.4987 |      4.1361 |
 | "Original - Displacement z"                     |      1910 |   560.5583 |    0.29349 |    0.36574 |    -0.50000 |     0.50000 |
 | "Original - Energy"                             |      1910 |   495.2778 |    0.25931 |    0.37132 |  0.00017645 |      4.4915 |
 | "Original - Entry Point x"                      |      1910 |  -44887.25 |    -23.501 |     290.70 |     -776.28 |      759.68 |
 | "Original - Entry Point y"                      |      1910 |   2691.206 |     1.4090 |     227.00 |     -661.12 |      680.18 |
 | "Original - Entry Point z"                      |      1910 |    4761890 |     2493.1 |     136.25 |      2322.0 |      2648.0 |
 | "Original - Parent |P|"                         |      1910 |    5686801 |     2977.4 |     9080.0 |      1.4261 |  1.0331e+05 |
 | "Original - TOF"                                |      1910 |   20634.25 |     10.803 |     4.8186 |      7.7182 |      37.593 |
 | "Unpacked - Displacement x"                     |      1910 |  -61.87012 |  -0.032393 |    0.53005 |     -5.8579 |      10.003 |
 | "Unpacked - Displacement y"                     |      1910 |  -8.833894 | -0.0046251 |    0.28655 |     -4.4987 |      4.1361 |
 | "Unpacked - Displacement z"                     |      1910 |   560.5583 |    0.29349 |    0.36574 |    -0.50000 |     0.50000 |
 | "Unpacked - Energy"                             |      1910 |   495.2778 |    0.25931 |    0.37132 |  0.00017600 |      4.4915 |
 | "Unpacked - Entry Point x"                      |      1910 |  -44887.25 |    -23.501 |     290.70 |     -776.28 |      759.68 |
 | "Unpacked - Entry Point y"                      |      1910 |   2691.205 |     1.4090 |     227.00 |     -661.12 |      680.18 |
 | "Unpacked - Entry Point z"                      |      1910 |    4761890 |     2493.1 |     136.25 |      2322.0 |      2648.0 |
 | "Unpacked - Parent |P|"                         |      1910 |    5686801 |     2977.4 |     9080.0 |      1.4300 |  1.0331e+05 |
 | "Unpacked - TOF"                                |      1910 |   20634.25 |     10.803 |     4.8186 |      7.7182 |      37.593 |
CheckVeloHits              INFO Number of counters : 27
 |    Counter                                      |     #     |    sum     | mean/eff^* | rms/err^*  |     min     |     max     |
 | "Diff.    - Displacement x"                     |      4396 |2.419541e-05 | 5.5040e-09 | 2.8843e-07 | -4.9991e-07 |  4.9995e-07 |
 | "Diff.    - Displacement y"                     |      4396 |-1.021904e-05 |-2.3246e-09 | 2.9116e-07 | -4.9996e-07 |  4.9995e-07 |
 | "Diff.    - Displacement z"                     |      4396 |-4.410467e-05 |-1.0033e-08 | 2.8850e-07 | -4.9994e-07 |  4.9996e-07 |
 | "Diff.    - Energy"                             |      4396 |-2.514856e-05 |-5.7208e-09 | 5.8024e-07 | -9.9979e-07 |  9.9750e-07 |
 | "Diff.    - Entry Point x"                      |      4396 |0.001194207 | 2.7166e-07 | 2.8774e-05 | -4.9978e-05 |  5.0000e-05 |
 | "Diff.    - Entry Point y"                      |      4396 |0.0009164447 | 2.0847e-07 | 2.8570e-05 | -4.9996e-05 |  4.9984e-05 |
 | "Diff.    - Entry Point z"                      |      4396 |0.001516885 | 3.4506e-07 | 2.8743e-05 | -4.9980e-05 |  4.9997e-05 |
 | "Diff.    - Parent |P|"                         |      4396 |  0.2831707 | 6.4416e-05 |  0.0029047 |  -0.0049991 |   0.0049987 |
 | "Diff.    - TOF"                                |      4396 |-0.0002535381 |-5.7675e-08 | 2.9031e-06 | -4.9967e-06 |  4.9972e-06 |
 | "Original - Displacement x"                     |      4396 |  -1.294724 |-0.00029452 |   0.098837 |     -2.1950 |      1.0298 |
 | "Original - Displacement y"                     |      4396 |   4.335103 | 0.00098615 |    0.11332 |     -3.0098 |      1.9784 |
 | "Original - Displacement z"                     |      4396 |   593.3921 |    0.13498 |    0.26222 |    -0.30281 |     0.30145 |
 | "Original - Energy"                             |      4396 |    663.266 |    0.15088 |    0.32636 |  2.0827e-05 |      5.5710 |
 | "Original - Entry Point x"                      |      4396 |  -4529.494 |    -1.0304 |     15.736 |     -41.613 |      43.546 |
 | "Original - Entry Point y"                      |      4396 |    4086.61 |    0.92962 |     16.550 |     -43.885 |      43.880 |
 | "Original - Entry Point z"                      |      4396 |     978831 |     222.66 |     300.91 |     -175.81 |      751.14 |
 | "Original - Parent |P|"                         |      4396 |2.896659e+07 |     6589.3 |     14708.0 |      1.5198 |  1.7567e+05 |
 | "Original - TOF"                                |      4396 |   4454.209 |     1.0132 |    0.84702 |    0.031682 |      5.8198 |
 | "Unpacked - Displacement x"                     |      4396 |  -1.294748 |-0.00029453 |   0.098837 |     -2.1950 |      1.0298 |
 | "Unpacked - Displacement y"                     |      4396 |   4.335113 | 0.00098615 |    0.11332 |     -3.0098 |      1.9785 |
 | "Unpacked - Displacement z"                     |      4396 |   593.3922 |    0.13498 |    0.26222 |    -0.30281 |     0.30145 |
 | "Unpacked - Energy"                             |      4396 |   663.2661 |    0.15088 |    0.32636 |  2.0000e-05 |      5.5710 |
 | "Unpacked - Entry Point x"                      |      4396 |  -4529.495 |    -1.0304 |     15.736 |     -41.613 |      43.546 |
 | "Unpacked - Entry Point y"                      |      4396 |   4086.609 |    0.92962 |     16.550 |     -43.885 |      43.880 |
 | "Unpacked - Entry Point z"                      |      4396 |     978831 |     222.66 |     300.91 |     -175.81 |      751.14 |
 | "Unpacked - Parent |P|"                         |      4396 |2.896659e+07 |     6589.3 |     14708.0 |      1.5200 |  1.7567e+05 |
 | "Unpacked - TOF"                                |      4396 |   4454.209 |     1.0132 |    0.84702 |    0.031680 |      5.8198 |
GaussGen.GaussGenMemory    INFO Number of counters : 1
 |    Counter                                      |     #     |    sum     | mean/eff^* | rms/err^*  |     min     |     max     |
GaussGeo.Ecal              INFO Number of counters : 4
 |    Counter                                      |     #     |    sum     | mean/eff^* | rms/err^*  |     min     |     max     |
 | "#energy"                                       |         5 |   70.58735 |     14.117 |     10.525 |      3.5191 |      30.412 |
 | "#hits"                                         |         5 |       4505 |     901.00 |     535.83 |      277.00 |      1652.0 |
 | "#subhits"                                      |         5 |       6316 |     1263.2 |     906.42 |      300.00 |      2617.0 |
 | "#tslots"                                       |         5 |       7899 |     1579.8 |     1135.2 |      390.00 |      3240.0 |
GaussGeo.Hcal              INFO Number of counters : 4
 |    Counter                                      |     #     |    sum     | mean/eff^* | rms/err^*  |     min     |     max     |
 | "#energy"                                       |         5 |   13.15423 |     2.6308 |     2.3339 |     0.53637 |      6.7214 |
 | "#hits"                                         |         5 |        811 |     162.20 |     106.54 |      56.000 |      297.00 |
 | "#subhits"                                      |         5 |       1225 |     245.00 |     191.16 |      63.000 |      504.00 |
 | "#tslots"                                       |         5 |       1606 |     321.20 |     247.84 |      82.000 |      652.00 |
GaussGeo.Prs               INFO Number of counters : 4
 |    Counter                                      |     #     |    sum     | mean/eff^* | rms/err^*  |     min     |     max     |
 | "#energy"                                       |         5 |   6.926787 |     1.3854 |    0.95699 |     0.28334 |      2.8636 |
 | "#hits"                                         |         5 |        982 |     196.40 |     124.03 |      59.000 |      384.00 |
 | "#subhits"                                      |         5 |       1149 |     229.80 |     150.69 |      63.000 |      461.00 |
 | "#tslots"                                       |         5 |       6780 |     1356.0 |     886.99 |      367.00 |      2714.0 |
GaussGeo.Spd               INFO Number of counters : 4
 |    Counter                                      |     #     |    sum     | mean/eff^* | rms/err^*  |     min     |     max     |
 | "#energy"                                       |         5 |   3.856389 |    0.77128 |    0.45394 |     0.16774 |      1.3884 |
 | "#hits"                                         |         5 |        952 |     190.40 |     110.25 |      38.000 |      323.00 |
 | "#subhits"                                      |         5 |       1200 |     240.00 |     144.54 |      43.000 |      415.00 |
 | "#tslots"                                       |         5 |       7113 |     1422.6 |     856.08 |      254.00 |      2458.0 |
ITHitMonitor               INFO Number of counters : 3
 |    Counter                                      |     #     |    sum     | mean/eff^* | rms/err^*  |     min     |     max     |
 | "DeltaRay"                                      |        57 |
 | "betaGamma"                                     |      1318 |    6632650 |     5032.4 |
 | "numberHits"                                    |         5 |       1318 |     263.60 |
MCEcalHitPacker            INFO Number of counters : 1
 |    Counter                                      |     #     |    sum     | mean/eff^* | rms/err^*  |     min     |     max     |
 | "# PackedData"                                  |         5 |      25571 |     5114.2 |     3753.0 |      985.00 |      10373.0 |
MCHcalHitPacker            INFO Number of counters : 1
 |    Counter                                      |     #     |    sum     | mean/eff^* | rms/err^*  |     min     |     max     |
 | "# PackedData"                                  |         5 |       1623 |     324.60 |     250.11 |      82.000 |      657.00 |
MCITHitPacker              INFO Number of counters : 1
 |    Counter                                      |     #     |    sum     | mean/eff^* | rms/err^*  |     min     |     max     |
 | "# PackedData"                                  |         5 |       1318 |     263.60 |     182.34 |      20.000 |      569.00 |
MCMuonHitPacker            INFO Number of counters : 1
 |    Counter                                      |     #     |    sum     | mean/eff^* | rms/err^*  |     min     |     max     |
 | "# PackedData"                                  |         5 |       1705 |     341.00 |     220.50 |      48.000 |      610.00 |
MCOTHitPacker              INFO Number of counters : 1
 |    Counter                                      |     #     |    sum     | mean/eff^* | rms/err^*  |     min     |     max     |
 | "# PackedData"                                  |         5 |       3872 |     774.40 |     533.00 |      81.000 |      1419.0 |
MCPrsHitPacker             INFO Number of counters : 1
 |    Counter                                      |     #     |    sum     | mean/eff^* | rms/err^*  |     min     |     max     |
 | "# PackedData"                                  |         5 |      23497 |     4699.4 |     3258.0 |      837.00 |      8629.0 |
MCPuVetoHitPacker          INFO Number of counters : 1
 |    Counter                                      |     #     |    sum     | mean/eff^* | rms/err^*  |     min     |     max     |
 | "# PackedData"                                  |         5 |        258 |     51.600 |     38.959 |      2.0000 |      96.000 |
MCRichHitPacker            INFO Number of counters : 1
 |    Counter                                      |     #     |    sum     | mean/eff^* | rms/err^*  |     min     |     max     |
 | "# PackedData"                                  |         5 |      11480 |     2296.0 |     1464.2 |      240.00 |      4025.0 |
MCRichOpPhotPacker         INFO Number of counters : 1
 |    Counter                                      |     #     |    sum     | mean/eff^* | rms/err^*  |     min     |     max     |
 | "# PackedData"                                  |         5 |      11477 |     2295.4 |     1463.5 |      240.00 |      4022.0 |
MCRichSegmentPacker        INFO Number of counters : 1
 |    Counter                                      |     #     |    sum     | mean/eff^* | rms/err^*  |     min     |     max     |
 | "# PackedData"                                  |         5 |        672 |     134.40 |     87.113 |      15.000 |      235.00 |
MCRichTrackPacker          INFO Number of counters : 1
 |    Counter                                      |     #     |    sum     | mean/eff^* | rms/err^*  |     min     |     max     |
 | "# PackedData"                                  |         5 |        582 |     116.40 |     74.255 |      14.000 |      202.00 |
MCSpdHitPacker             INFO Number of counters : 1
 |    Counter                                      |     #     |    sum     | mean/eff^* | rms/err^*  |     min     |     max     |
 | "# PackedData"                                  |         5 |       9184 |     1836.8 |     1150.6 |      304.00 |      3263.0 |
MCTTHitPacker              INFO Number of counters : 1
 |    Counter                                      |     #     |    sum     | mean/eff^* | rms/err^*  |     min     |     max     |
 | "# PackedData"                                  |         5 |       1910 |     382.00 |     224.40 |      39.000 |      656.00 |
MCVeloHitPacker            INFO Number of counters : 1
 |    Counter                                      |     #     |    sum     | mean/eff^* | rms/err^*  |     min     |     max     |
 | "# PackedData"                                  |         5 |       4396 |     879.20 |     647.46 |      112.00 |      1633.0 |
MainEventGaussSim.Mai...   INFO Number of counters : 1
 |    Counter                                      |     #     |    sum     | mean/eff^* | rms/err^*  |     min     |     max     |
OTHitMonitor               INFO Number of counters : 3
 |    Counter                                      |     #     |    sum     | mean/eff^* | rms/err^*  |     min     |     max     |
 | "DeltaRay"                                      |       344 |
 | "betaGamma"                                     |      3872 |    4469695 |     1154.4 |
 | "numberHits"                                    |         5 |       3872 |     774.40 |
TTHitMonitor               INFO Number of counters : 3
 |    Counter                                      |     #     |    sum     | mean/eff^* | rms/err^*  |     min     |     max     |
 | "DeltaRay"                                      |       200 |
 | "betaGamma"                                     |      1910 |    1598883 |     837.11 |
 | "numberHits"                                    |         5 |       1910 |     382.00 |
UnpackEcalHits             INFO Number of counters : 1
 |    Counter                                      |     #     |    sum     | mean/eff^* | rms/err^*  |     min     |     max     |
 | "# UnPackedData"                                |         5 |      25571 |     5114.2 |     3753.0 |      985.00 |      10373.0 |
UnpackHcalHits             INFO Number of counters : 1
 |    Counter                                      |     #     |    sum     | mean/eff^* | rms/err^*  |     min     |     max     |
 | "# UnPackedData"                                |         5 |       1623 |     324.60 |     250.11 |      82.000 |      657.00 |
UnpackITHits               INFO Number of counters : 1
 |    Counter                                      |     #     |    sum     | mean/eff^* | rms/err^*  |     min     |     max     |
 | "# UnPackedData"                                |         5 |       1318 |     263.60 |     182.34 |      20.000 |      569.00 |
UnpackMuonHits             INFO Number of counters : 1
 |    Counter                                      |     #     |    sum     | mean/eff^* | rms/err^*  |     min     |     max     |
 | "# UnPackedData"                                |         5 |       1705 |     341.00 |     220.50 |      48.000 |      610.00 |
UnpackOTHits               INFO Number of counters : 1
 |    Counter                                      |     #     |    sum     | mean/eff^* | rms/err^*  |     min     |     max     |
 | "# UnPackedData"                                |         5 |       3872 |     774.40 |     533.00 |      81.000 |      1419.0 |
UnpackPrsHits              INFO Number of counters : 1
 |    Counter                                      |     #     |    sum     | mean/eff^* | rms/err^*  |     min     |     max     |
 | "# UnPackedData"                                |         5 |      23497 |     4699.4 |     3258.0 |      837.00 |      8629.0 |
UnpackPuVetoHits           INFO Number of counters : 1
 |    Counter                                      |     #     |    sum     | mean/eff^* | rms/err^*  |     min     |     max     |
 | "# UnPackedData"                                |         5 |        258 |     51.600 |     38.959 |      2.0000 |      96.000 |
UnpackRichHits             INFO Number of counters : 1
 |    Counter                                      |     #     |    sum     | mean/eff^* | rms/err^*  |     min     |     max     |
 | "# UnPackedData"                                |         5 |      11480 |     2296.0 |     1464.2 |      240.00 |      4025.0 |
UnpackRichOpPhot           INFO Number of counters : 1
 |    Counter                                      |     #     |    sum     | mean/eff^* | rms/err^*  |     min     |     max     |
 | "# UnPackedData"                                |         5 |      11477 |     2295.4 |     1463.5 |      240.00 |      4022.0 |
UnpackRichSegments         INFO Number of counters : 1
 |    Counter                                      |     #     |    sum     | mean/eff^* | rms/err^*  |     min     |     max     |
 | "# UnPackedData"                                |         5 |        672 |     134.40 |     87.113 |      15.000 |      235.00 |
UnpackRichTracks           INFO Number of counters : 1
 |    Counter                                      |     #     |    sum     | mean/eff^* | rms/err^*  |     min     |     max     |
 | "# UnPackedData"                                |         5 |        582 |     116.40 |     74.255 |      14.000 |      202.00 |
UnpackSpdHits              INFO Number of counters : 1
 |    Counter                                      |     #     |    sum     | mean/eff^* | rms/err^*  |     min     |     max     |
 | "# UnPackedData"                                |         5 |       9184 |     1836.8 |     1150.6 |      304.00 |      3263.0 |
UnpackTTHits               INFO Number of counters : 1
 |    Counter                                      |     #     |    sum     | mean/eff^* | rms/err^*  |     min     |     max     |
 | "# UnPackedData"                                |         5 |       1910 |     382.00 |     224.40 |      39.000 |      656.00 |
UnpackVeloHits             INFO Number of counters : 1
 |    Counter                                      |     #     |    sum     | mean/eff^* | rms/err^*  |     min     |     max     |
 | "# UnPackedData"                                |         5 |       4396 |     879.20 |     647.46 |      112.00 |      1633.0 |
